^C:\USERS\BINKOLN\DOCUMENTS\A4\GK\FINITEST\PROJEKTGRAFIKA_SILNIKFPS\X64\DEBUG\ASSETSEXPOLRERWINDOW.OBJ|C:\USERS\BINKOLN\DOCUMENTS\A4\GK\FINITEST\PROJEKTGRAFIKA_SILNIKFPS\X64\DEBUG\CAMERA.OBJ|C:\USERS\BINKOLN\DOCUMENTS\A4\GK\FINITEST\PROJEKTGRAFIKA_SILNIKFPS\X64\DEBUG\CUBEMAPTEXTURE.OBJ|C:\USERS\BINKOLN\DOCUMENTS\A4\GK\FINITEST\PROJEKTGRAFIKA_SILNIKFPS\X64\DEBUG\DEFFEREDRENDERER.OBJ|C:\USERS\BINKOLN\DOCUMENTS\A4\GK\FINITEST\PROJEKTGRAFIKA_SILNIKFPS\X64\DEBUG\DIRECTIONALLIGHTEXTENSION.OBJ|C:\USERS\BINKOLN\DOCUMENTS\A4\GK\FINITEST\PROJEKTGRAFIKA_SILNIKFPS\X64\DEBUG\EDITORCONSOLE.OBJ|C:\USERS\BINKOLN\DOCUMENTS\A4\GK\FINITEST\PROJEKTGRAFIKA_SILNIKFPS\X64\DEBUG\EXTENSION.OBJ|C:\USERS\BINKOLN\DOCUMENTS\A4\GK\FINITEST\PROJEKTGRAFIKA_SILNIKFPS\X64\DEBUG\FORWARDRENDERER.OBJ|C:\USERS\BINKOLN\DOCUMENTS\A4\GK\FINITEST\PROJEKTGRAFIKA_SILNIKFPS\X64\DEBUG\FRAMEBUFFER.OBJ|C:\USERS\BINKOLN\DOCUMENTS\A4\GK\FINITEST\PROJEKTGRAFIKA_SILNIKFPS\X64\DEBUG\IMGUI.OBJ|C:\USERS\BINKOLN\DOCUMENTS\A4\GK\FINITEST\PROJEKTGRAFIKA_SILNIKFPS\X64\DEBUG\IMGUIZMO.OBJ|C:\USERS\BINKOLN\DOCUMENTS\A4\GK\FINITEST\PROJEKTGRAFIKA_SILNIKFPS\X64\DEBUG\IMGUI_DEMO.OBJ|C:\USERS\BINKOLN\DOCUMENTS\A4\GK\FINITEST\PROJEKTGRAFIKA_SILNIKFPS\X64\DEBUG\IMGUI_DRAW.OBJ|C:\USERS\BINKOLN\DOCUMENTS\A4\GK\FINITEST\PROJEKTGRAFIKA_SILNIKFPS\X64\DEBUG\IMGUI_IMPL_GLFW.OBJ|C:\USERS\BINKOLN\DOCUMENTS\A4\GK\FINITEST\PROJEKTGRAFIKA_SILNIKFPS\X64\DEBUG\IMGUI_IMPL_OPENGL3.OBJ|C:\USERS\BINKOLN\DOCUMENTS\A4\GK\FINITEST\PROJEKTGRAFIKA_SILNIKFPS\X64\DEBUG\IMGUI_TABLES.OBJ|C:\USERS\BINKOLN\DOCUMENTS\A4\GK\FINITEST\PROJEKTGRAFIKA_SILNIKFPS\X64\DEBUG\IMGUI_WIDGETS.OBJ|C:\USERS\BINKOLN\DOCUMENTS\A4\GK\FINITEST\PROJEKTGRAFIKA_SILNIKFPS\X64\DEBUG\INPUTMANAGER.OBJ|C:\USERS\BINKOLN\DOCUMENTS\A4\GK\FINITEST\PROJEKTGRAFIKA_SILNIKFPS\X64\DEBUG\INSPECTORWINDOW.OBJ|C:\USERS\BINKOLN\DOCUMENTS\A4\GK\FINITEST\PROJEKTGRAFIKA_SILNIKFPS\X64\DEBUG\LEVEL.OBJ|C:\USERS\BINKOLN\DOCUMENTS\A4\GK\FINITEST\PROJEKTGRAFIKA_SILNIKFPS\X64\DEBUG\LUASCRIPTEXTENSION.OBJ|C:\USERS\BINKOLN\DOCUMENTS\A4\GK\FINITEST\PROJEKTGRAFIKA_SILNIKFPS\X64\DEBUG\MAIN.OBJ|C:\USERS\BINKOLN\DOCUMENTS\A4\GK\FINITEST\PROJEKTGRAFIKA_SILNIKFPS\X64\DEBUG\MESH.OBJ|C:\USERS\BINKOLN\DOCUMENTS\A4\GK\FINITEST\PROJEKTGRAFIKA_SILNIKFPS\X64\DEBUG\MODEL.OBJ|C:\USERS\BINKOLN\DOCUMENTS\A4\GK\FINITEST\PROJEKTGRAFIKA_SILNIKFPS\X64\DEBUG\MODELMANAGER.OBJ|C:\USERS\BINKOLN\DOCUMENTS\A4\GK\FINITEST\PROJEKTGRAFIKA_SILNIKFPS\X64\DEBUG\MODELRENDEREREXTENSION.OBJ|C:\USERS\BINKOLN\DOCUMENTS\A4\GK\FINITEST\PROJEKTGRAFIKA_SILNIKFPS\X64\DEBUG\OBJECT.OBJ|C:\USERS\BINKOLN\DOCUMENTS\A4\GK\FINITEST\PROJEKTGRAFIKA_SILNIKFPS\X64\DEBUG\PHYSXCHARACTERCONTROLLEREXTENSION.OBJ|C:\USERS\BINKOLN\DOCUMENTS\A4\GK\FINITEST\PROJEKTGRAFIKA_SILNIKFPS\X64\DEBUG\PHYSXEXTENSION.OBJ|C:\USERS\BINKOLN\DOCUMENTS\A4\GK\FINITEST\PROJEKTGRAFIKA_SILNIKFPS\X64\DEBUG\POINTLIGHEXTENSION.OBJ|C:\USERS\BINKOLN\DOCUMENTS\A4\GK\FINITEST\PROJEKTGRAFIKA_SILNIKFPS\X64\DEBUG\PROFILER.OBJ|C:\USERS\BINKOLN\DOCUMENTS\A4\GK\FINITEST\PROJEKTGRAFIKA_SILNIKFPS\X64\DEBUG\PROFILERTIMERUNIT.OBJ|C:\USERS\BINKOLN\DOCUMENTS\A4\GK\FINITEST\PROJEKTGRAFIKA_SILNIKFPS\X64\DEBUG\RENDERER2D.OBJ|C:\USERS\BINKOLN\DOCUMENTS\A4\GK\FINITEST\PROJEKTGRAFIKA_SILNIKFPS\X64\DEBUG\SHADER.OBJ|C:\USERS\BINKOLN\DOCUMENTS\A4\GK\FINITEST\PROJEKTGRAFIKA_SILNIKFPS\X64\DEBUG\SIMPLEMATERIALEDITOR.OBJ|C:\USERS\BINKOLN\DOCUMENTS\A4\GK\FINITEST\PROJEKTGRAFIKA_SILNIKFPS\X64\DEBUG\SIMPLETRIGGEREXTENSION.OBJ|C:\USERS\BINKOLN\DOCUMENTS\A4\GK\FINITEST\PROJEKTGRAFIKA_SILNIKFPS\X64\DEBUG\SOUNDPLAYER.OBJ|C:\USERS\BINKOLN\DOCUMENTS\A4\GK\FINITEST\PROJEKTGRAFIKA_SILNIKFPS\X64\DEBUG\SPRITERENDEREREXTENSION.OBJ|C:\USERS\BINKOLN\DOCUMENTS\A4\GK\FINITEST\PROJEKTGRAFIKA_SILNIKFPS\X64\DEBUG\STRINGTOOLS.OBJ|C:\USERS\BINKOLN\DOCUMENTS\A4\GK\FINITEST\PROJEKTGRAFIKA_SILNIKFPS\X64\DEBUG\TENGINE.OBJ|C:\USERS\BINKOLN\DOCUMENTS\A4\GK\FINITEST\PROJEKTGRAFIKA_SILNIKFPS\X64\DEBUG\TERRAINEXTENSION.OBJ|C:\USERS\BINKOLN\DOCUMENTS\A4\GK\FINITEST\PROJEKTGRAFIKA_SILNIKFPS\X64\DEBUG\TEXTURE.OBJ|C:\USERS\BINKOLN\DOCUMENTS\A4\GK\FINITEST\PROJEKTGRAFIKA_SILNIKFPS\X64\DEBUG\TEXTUREMANAGER.OBJ|C:\USERS\BINKOLN\DOCUMENTS\A4\GK\FINITEST\PROJEKTGRAFIKA_SILNIKFPS\X64\DEBUG\TINYXML2.OBJ|C:\USERS\BINKOLN\DOCUMENTS\A4\GK\FINITEST\PROJEKTGRAFIKA_SILNIKFPS\X64\DEBUG\UNIFORMVALUE.OBJ
C:\USERS\BINKOLN\DOCUMENTS\A4\GK\FINITEST\PROJEKTGRAFIKA_SILNIKFPS\X64\DEBUG\PROJEKTGRAFIKA_SILNIKFPS.ILK
C:\USERS\BINKOLN\DOCUMENTS\A4\GK\FINITEST\X64\DEBUG\PROJEKTGRAFIKA_SILNIKFPS.EXE
C:\USERS\BINKOLN\DOCUMENTS\A4\GK\FINITEST\X64\DEBUG\PROJEKTGRAFIKA_SILNIKFPS.PDB
