# Blender MTL File: 'boss.blend'
# Material Count: 15

newmtl Materiał
Ns 225.000000
Ka 1.000000 1.000000 1.000000
Kd 0.799103 0.000000 0.000911
Ks 0.500000 0.500000 0.500000
Ke 0.000000 0.000000 0.000000
Ni 1.450000
d 1.000000
illum 2
map_Kd boss\\boss_Albedo.png

newmtl Materiał.001
Ns 225.000000
Ka 1.000000 1.000000 1.000000
Kd 0.109462 0.799103 0.000000
Ks 0.500000 0.500000 0.500000
Ke 0.000000 0.000000 0.000000
Ni 1.450000
d 1.000000
illum 2
map_Kd boss\\boss_Albedo.png

newmtl Materiał.002
Ns 225.000000
Ka 1.000000 1.000000 1.000000
Kd 0.799103 0.000000 0.000911
Ks 0.500000 0.500000 0.500000
Ke 0.000000 0.000000 0.000000
Ni 1.450000
d 1.000000
illum 2
map_Kd boss\\boss_Albedo.png

newmtl Materiał.003
Ns 225.000000
Ka 1.000000 1.000000 1.000000
Kd 0.799103 0.000000 0.000911
Ks 0.500000 0.500000 0.500000
Ke 0.000000 0.000000 0.000000
Ni 1.450000
d 1.000000
illum 2
map_Kd boss\\boss_Albedo.png

newmtl Materiał.004
Ns 225.000000
Ka 1.000000 1.000000 1.000000
Kd 0.799103 0.000000 0.000911
Ks 0.500000 0.500000 0.500000
Ke 0.000000 0.000000 0.000000
Ni 1.450000
d 1.000000
illum 2
map_Kd boss\\boss_Albedo.png

newmtl Materiał.005
Ns 225.000000
Ka 1.000000 1.000000 1.000000
Kd 0.109462 0.799103 0.000000
Ks 0.500000 0.500000 0.500000
Ke 0.000000 0.000000 0.000000
Ni 1.450000
d 1.000000
illum 2
map_Kd boss\\boss_Albedo.png

newmtl Materiał.006
Ns 225.000000
Ka 1.000000 1.000000 1.000000
Kd 0.799103 0.000000 0.000911
Ks 0.500000 0.500000 0.500000
Ke 0.000000 0.000000 0.000000
Ni 1.450000
d 1.000000
illum 2
map_Kd boss\\boss_Albedo.png

newmtl Materiał.007
Ns 225.000000
Ka 1.000000 1.000000 1.000000
Kd 0.000000 0.000000 0.000000
Ks 0.500000 0.500000 0.500000
Ke 0.000000 0.000000 0.000000
Ni 1.450000
d 1.000000
illum 2
map_Kd boss\\boss_Albedo.png

newmtl Materiał.008
Ns 225.000000
Ka 1.000000 1.000000 1.000000
Kd 0.799103 0.000000 0.783538
Ks 0.500000 0.500000 0.500000
Ke 0.000000 0.000000 0.000000
Ni 1.450000
d 1.000000
illum 2
map_Kd boss\\boss_Albedo.png

newmtl Materiał.009
Ns 225.000000
Ka 1.000000 1.000000 1.000000
Kd 0.000000 0.000000 0.000000
Ks 0.500000 0.500000 0.500000
Ke 0.000000 0.000000 0.000000
Ni 1.450000
d 1.000000
illum 2
map_Kd boss\\boss_Albedo.png

newmtl Materiał.010
Ns 225.000000
Ka 1.000000 1.000000 1.000000
Kd 0.799103 0.000000 0.783538
Ks 0.500000 0.500000 0.500000
Ke 0.000000 0.000000 0.000000
Ni 1.450000
d 1.000000
illum 2
map_Kd boss\\boss_Albedo.png

newmtl Materiał.011
Ns 225.000000
Ka 1.000000 1.000000 1.000000
Kd 0.000000 0.226966 0.799103
Ks 0.500000 0.500000 0.500000
Ke 0.000000 0.000000 0.000000
Ni 1.450000
d 1.000000
illum 2
map_Kd boss\\boss_Albedo.png

newmtl Materiał.012
Ns 225.000000
Ka 1.000000 1.000000 1.000000
Kd 0.000000 0.226966 0.799103
Ks 0.500000 0.500000 0.500000
Ke 0.000000 0.000000 0.000000
Ni 1.450000
d 1.000000
illum 2
map_Kd boss\\boss_Albedo.png

newmtl Materiał.013
Ns 225.000000
Ka 1.000000 1.000000 1.000000
Kd 0.109462 0.799103 0.000000
Ks 0.500000 0.500000 0.500000
Ke 0.000000 0.000000 0.000000
Ni 1.450000
d 1.000000
illum 2
map_Kd boss\\boss_Albedo.png

newmtl Materiał.014
Ns 225.000000
Ka 1.000000 1.000000 1.000000
Kd 0.109462 0.799103 0.000000
Ks 0.500000 0.500000 0.500000
Ke 0.000000 0.000000 0.000000
Ni 1.450000
d 1.000000
illum 2
map_Kd boss\\boss_Albedo.png
