# Blender MTL File: 'brass_vase_04_2k.blend'
# Material Count: 1

newmtl brass_vase_04
Ns 225.000000
Ka 1.000000 1.000000 1.000000
Kd 0.800000 0.800000 0.800000
Ks 0.500000 0.500000 0.500000
Ke 0.000000 0.000000 0.000000
Ni 1.450000
d 1.000000
illum 2
map_Bump textures\\brass_vase_04_nor_gl_2k.png
map_Kd textures\\brass_vase_04_diff_2k.png
map_Ns textures\\brass_vase_04_rough_2k.png
refl textures\\brass_vase_04_metal_2k.png
