# Blender MTL File: 'Sofa_01_2k.blend'
# Material Count: 1

newmtl Sofa_01
Ns 225.000000
Ka 1.000000 1.000000 1.000000
Kd 0.800000 0.800000 0.800000
Ks 0.500000 0.500000 0.500000
Ke 0.000000 0.000000 0.000000
Ni 1.450000
d 1.000000
illum 2
map_Bump textures\\Sofa_01_nor_gl_2k.png
map_Kd textures\\Sofa_01_diff_2k.png
map_Ns textures\\Sofa_01_roughness_2k.png
refl textures\\Sofa_01_metallic_2k.exr
